<svg viewBox="0 0 32 32" xmlns="http://www.w3.org/2000/svg">
  <path
    d="m16 0 4.702 9.528 10.515 1.528-7.608 7.416 1.796 10.472L16 24l-9.405 4.944 1.797-10.472-7.609-7.416 10.515-1.528L16 0Z" />
</svg>
